%YAML 1.1
%TAG !u! tag:unity3d.com,2011:
--- !u!1 &102954
GameObject:
  m_ObjectHideFlags: 0
  m_PrefabParentObject: {fileID: 0}
  m_PrefabInternal: {fileID: 100100000}
  serializedVersion: 4
  m_Component:
  - 4: {fileID: 408882}
  - 212: {fileID: 21211762}
  m_Layer: 0
  m_Name: Shadow
  m_TagString: Untagged
  m_Icon: {fileID: 0}
  m_NavMeshLayer: 0
  m_StaticEditorFlags: 0
  m_IsActive: 1
--- !u!1 &124598
GameObject:
  m_ObjectHideFlags: 0
  m_PrefabParentObject: {fileID: 0}
  m_PrefabInternal: {fileID: 100100000}
  serializedVersion: 4
  m_Component:
  - 4: {fileID: 475076}
  - 114: {fileID: 11459280}
  - 114: {fileID: 11444226}
  - 65: {fileID: 6535564}
  - 114: {fileID: 11458008}
  - 114: {fileID: 11449734}
  - 114: {fileID: 114000010977648456}
  m_Layer: 0
  m_Name: Owl
  m_TagString: Owl
  m_Icon: {fileID: 0}
  m_NavMeshLayer: 0
  m_StaticEditorFlags: 0
  m_IsActive: 1
--- !u!1 &174626
GameObject:
  m_ObjectHideFlags: 0
  m_PrefabParentObject: {fileID: 0}
  m_PrefabInternal: {fileID: 100100000}
  serializedVersion: 4
  m_Component:
  - 4: {fileID: 479516}
  - 212: {fileID: 21273696}
  - 114: {fileID: 11443512}
  m_Layer: 0
  m_Name: OwlSprite
  m_TagString: Untagged
  m_Icon: {fileID: 0}
  m_NavMeshLayer: 0
  m_StaticEditorFlags: 0
  m_IsActive: 1
--- !u!4 &408882
Transform:
  m_ObjectHideFlags: 1
  m_PrefabParentObject: {fileID: 0}
  m_PrefabInternal: {fileID: 100100000}
  m_GameObject: {fileID: 102954}
  m_LocalRotation: {x: 0.7071068, y: 0, z: 0, w: 0.7071068}
  m_LocalPosition: {x: 0, y: 0.1, z: 0}
  m_LocalScale: {x: 1, y: 1, z: 1}
  m_LocalEulerAnglesHint: {x: 90, y: 0, z: 0}
  m_Children: []
  m_Father: {fileID: 475076}
  m_RootOrder: 1
--- !u!4 &475076
Transform:
  m_ObjectHideFlags: 1
  m_PrefabParentObject: {fileID: 0}
  m_PrefabInternal: {fileID: 100100000}
  m_GameObject: {fileID: 124598}
  m_LocalRotation: {x: 0, y: 0, z: 0, w: 1}
  m_LocalPosition: {x: 0, y: 0, z: 0}
  m_LocalScale: {x: 1, y: 1, z: 1}
  m_LocalEulerAnglesHint: {x: 0, y: 0, z: 0}
  m_Children:
  - {fileID: 479516}
  - {fileID: 408882}
  m_Father: {fileID: 0}
  m_RootOrder: 0
--- !u!4 &479516
Transform:
  m_ObjectHideFlags: 1
  m_PrefabParentObject: {fileID: 0}
  m_PrefabInternal: {fileID: 100100000}
  m_GameObject: {fileID: 174626}
  m_LocalRotation: {x: 0.38268343, y: 0, z: 0, w: 0.92387956}
  m_LocalPosition: {x: 0, y: 18, z: 0}
  m_LocalScale: {x: 1, y: 1, z: 1}
  m_LocalEulerAnglesHint: {x: 45, y: 0, z: 0}
  m_Children: []
  m_Father: {fileID: 475076}
  m_RootOrder: 0
--- !u!65 &6535564
BoxCollider:
  m_ObjectHideFlags: 1
  m_PrefabParentObject: {fileID: 0}
  m_PrefabInternal: {fileID: 100100000}
  m_GameObject: {fileID: 124598}
  m_Material: {fileID: 0}
  m_IsTrigger: 0
  m_Enabled: 1
  serializedVersion: 2
  m_Size: {x: 24, y: 24, z: 24}
  m_Center: {x: 0, y: 12, z: 0}
--- !u!114 &11443512
MonoBehaviour:
  m_ObjectHideFlags: 1
  m_PrefabParentObject: {fileID: 0}
  m_PrefabInternal: {fileID: 100100000}
  m_GameObject: {fileID: 174626}
  m_Enabled: 1
  m_EditorHideFlags: 0
  m_Script: {fileID: 11500000, guid: e73b765e7876147848f4f842878c8942, type: 3}
  m_Name: 
  m_EditorClassIdentifier: 
  towardIdle:
  - {fileID: 21300002, guid: 08811424f58004126af122ba70b93d8f, type: 3}
  awayIdle:
  - {fileID: 21300004, guid: 08811424f58004126af122ba70b93d8f, type: 3}
  perpIdle:
  - {fileID: 21300006, guid: 08811424f58004126af122ba70b93d8f, type: 3}
  towardAttack: []
  awayAttack: []
  perpAttack: []
  objAnim: 0
  speedOfAnimation: 0
--- !u!114 &11444226
MonoBehaviour:
  m_ObjectHideFlags: 1
  m_PrefabParentObject: {fileID: 0}
  m_PrefabInternal: {fileID: 100100000}
  m_GameObject: {fileID: 124598}
  m_Enabled: 1
  m_EditorHideFlags: 0
  m_Script: {fileID: 11500000, guid: 8afa5c4e04fb34217ade74db9aa46991, type: 3}
  m_Name: 
  m_EditorClassIdentifier: 
  alive: 1
  timeForFullDeath: 1
  victoryGrow: 0
  timeOfVictoryStart: 0
  timeForFullVictory: 1
  owlFacingDirection: 3
  counterClockwise: 0
  gameControllerScript: {fileID: 0}
  spriteToAnimate: {fileID: 11443512}
--- !u!114 &11449734
MonoBehaviour:
  m_ObjectHideFlags: 1
  m_PrefabParentObject: {fileID: 0}
  m_PrefabInternal: {fileID: 100100000}
  m_GameObject: {fileID: 124598}
  m_Enabled: 1
  m_EditorHideFlags: 0
  m_Script: {fileID: 11500000, guid: ca663a8f73e9b483bad3e5bc9e62c605, type: 3}
  m_Name: 
  m_EditorClassIdentifier: 
--- !u!114 &11458008
MonoBehaviour:
  m_ObjectHideFlags: 1
  m_PrefabParentObject: {fileID: 0}
  m_PrefabInternal: {fileID: 100100000}
  m_GameObject: {fileID: 124598}
  m_Enabled: 1
  m_EditorHideFlags: 0
  m_Script: {fileID: 11500000, guid: 625c75ebb751c423a8e9af083df6a9dc, type: 3}
  m_Name: 
  m_EditorClassIdentifier: 
  randomOffset: 0
  aliveTime: 0
--- !u!114 &11459280
MonoBehaviour:
  m_ObjectHideFlags: 1
  m_PrefabParentObject: {fileID: 0}
  m_PrefabInternal: {fileID: 100100000}
  m_GameObject: {fileID: 124598}
  m_Enabled: 1
  m_EditorHideFlags: 0
  m_Script: {fileID: 11500000, guid: 4628326f4498d4f62987a44ef9f446a0, type: 3}
  m_Name: 
  m_EditorClassIdentifier: 
  objectType: Owl
--- !u!212 &21211762
SpriteRenderer:
  m_ObjectHideFlags: 1
  m_PrefabParentObject: {fileID: 0}
  m_PrefabInternal: {fileID: 100100000}
  m_GameObject: {fileID: 102954}
  m_Enabled: 1
  m_CastShadows: 0
  m_ReceiveShadows: 0
  m_MotionVectors: 1
  m_LightProbeUsage: 0
  m_ReflectionProbeUsage: 0
  m_Materials:
  - {fileID: 10754, guid: 0000000000000000f000000000000000, type: 0}
  m_SubsetIndices: 
  m_StaticBatchRoot: {fileID: 0}
  m_ProbeAnchor: {fileID: 0}
  m_LightProbeVolumeOverride: {fileID: 0}
  m_ScaleInLightmap: 1
  m_PreserveUVs: 0
  m_IgnoreNormalsForChartDetection: 0
  m_ImportantGI: 0
  m_SelectedWireframeHidden: 1
  m_MinimumChartSize: 4
  m_AutoUVMaxDistance: 0.5
  m_AutoUVMaxAngle: 89
  m_LightmapParameters: {fileID: 0}
  m_SortingLayerID: 996024697
  m_SortingOrder: 0
  m_Sprite: {fileID: 21300000, guid: cf624edb455224442884f91b1623a7c7, type: 3}
  m_Color: {r: 0, g: 0, b: 0, a: 1}
  m_FlipX: 0
  m_FlipY: 1
--- !u!212 &21273696
SpriteRenderer:
  m_ObjectHideFlags: 1
  m_PrefabParentObject: {fileID: 0}
  m_PrefabInternal: {fileID: 100100000}
  m_GameObject: {fileID: 174626}
  m_Enabled: 1
  m_CastShadows: 0
  m_ReceiveShadows: 0
  m_MotionVectors: 1
  m_LightProbeUsage: 0
  m_ReflectionProbeUsage: 0
  m_Materials:
  - {fileID: 10754, guid: 0000000000000000f000000000000000, type: 0}
  m_SubsetIndices: 
  m_StaticBatchRoot: {fileID: 0}
  m_ProbeAnchor: {fileID: 0}
  m_LightProbeVolumeOverride: {fileID: 0}
  m_ScaleInLightmap: 1
  m_PreserveUVs: 0
  m_IgnoreNormalsForChartDetection: 0
  m_ImportantGI: 0
  m_SelectedWireframeHidden: 1
  m_MinimumChartSize: 4
  m_AutoUVMaxDistance: 0.5
  m_AutoUVMaxAngle: 89
  m_LightmapParameters: {fileID: 0}
  m_SortingLayerID: -2100815553
  m_SortingOrder: 0
  m_Sprite: {fileID: 21300000, guid: 08811424f58004126af122ba70b93d8f, type: 3}
  m_Color: {r: 1, g: 1, b: 1, a: 1}
  m_FlipX: 0
  m_FlipY: 0
--- !u!1001 &100100000
Prefab:
  m_ObjectHideFlags: 1
  serializedVersion: 2
  m_Modification:
    m_TransformParent: {fileID: 0}
    m_Modifications: []
    m_RemovedComponents: []
  m_ParentPrefab: {fileID: 0}
  m_RootGameObject: {fileID: 124598}
  m_IsPrefabParent: 1
--- !u!114 &114000010977648456
MonoBehaviour:
  m_ObjectHideFlags: 1
  m_PrefabParentObject: {fileID: 0}
  m_PrefabInternal: {fileID: 100100000}
  m_GameObject: {fileID: 124598}
  m_Enabled: 1
  m_EditorHideFlags: 0
  m_Script: {fileID: 11500000, guid: d492d00279c38d04bbbd764b09166bfe, type: 3}
  m_Name: 
  m_EditorClassIdentifier: 
  showGizmo: 0
  soundSpawnMode: 2
  disableSounds: 0
  showPoolManager: 0
  showNGUI: 0
  unityUIMode: 1
  logMissingEvents: 1
  startSound:
    isExpanded: 1
    allPlayersShouldHear: 0
    useLayerFilter: 0
    useTagFilter: 0
    matchingLayers: 00000000
    matchingTags:
    - Default
    customSoundActive: 0
    isCustomEvent: 0
    customEventName: 
    mechanimEventActive: 0
    isMechanimStateCheckEvent: 0
    mechanimStateName: 
    mechEventPlayedForState: 0
    SoundEvents: []
    mouseDragStopMode: 0
    mouseDragFadeOutTime: 1
    retriggerLimitMode: 0
    limitPerXFrm: 0
    limitPerXSec: 0
    triggeredLastFrame: -100
    triggeredLastTime: -100
    sliderValue: 0
  visibleSound:
    isExpanded: 1
    allPlayersShouldHear: 0
    useLayerFilter: 0
    useTagFilter: 0
    matchingLayers: 00000000
    matchingTags:
    - Default
    customSoundActive: 0
    isCustomEvent: 0
    customEventName: 
    mechanimEventActive: 0
    isMechanimStateCheckEvent: 0
    mechanimStateName: 
    mechEventPlayedForState: 0
    SoundEvents: []
    mouseDragStopMode: 0
    mouseDragFadeOutTime: 1
    retriggerLimitMode: 0
    limitPerXFrm: 0
    limitPerXSec: 0
    triggeredLastFrame: -100
    triggeredLastTime: -100
    sliderValue: 0
  invisibleSound:
    isExpanded: 1
    allPlayersShouldHear: 0
    useLayerFilter: 0
    useTagFilter: 0
    matchingLayers: 00000000
    matchingTags:
    - Default
    customSoundActive: 0
    isCustomEvent: 0
    customEventName: 
    mechanimEventActive: 0
    isMechanimStateCheckEvent: 0
    mechanimStateName: 
    mechEventPlayedForState: 0
    SoundEvents: []
    mouseDragStopMode: 0
    mouseDragFadeOutTime: 1
    retriggerLimitMode: 0
    limitPerXFrm: 0
    limitPerXSec: 0
    triggeredLastFrame: -100
    triggeredLastTime: -100
    sliderValue: 0
  collisionSound:
    isExpanded: 1
    allPlayersShouldHear: 0
    useLayerFilter: 0
    useTagFilter: 0
    matchingLayers: 00000000
    matchingTags:
    - Default
    customSoundActive: 0
    isCustomEvent: 0
    customEventName: 
    mechanimEventActive: 0
    isMechanimStateCheckEvent: 0
    mechanimStateName: 
    mechEventPlayedForState: 0
    SoundEvents: []
    mouseDragStopMode: 0
    mouseDragFadeOutTime: 1
    retriggerLimitMode: 0
    limitPerXFrm: 0
    limitPerXSec: 0
    triggeredLastFrame: -100
    triggeredLastTime: -100
    sliderValue: 0
  collisionExitSound:
    isExpanded: 1
    allPlayersShouldHear: 0
    useLayerFilter: 0
    useTagFilter: 0
    matchingLayers: 00000000
    matchingTags:
    - Default
    customSoundActive: 0
    isCustomEvent: 0
    customEventName: 
    mechanimEventActive: 0
    isMechanimStateCheckEvent: 0
    mechanimStateName: 
    mechEventPlayedForState: 0
    SoundEvents: []
    mouseDragStopMode: 0
    mouseDragFadeOutTime: 1
    retriggerLimitMode: 0
    limitPerXFrm: 0
    limitPerXSec: 0
    triggeredLastFrame: -100
    triggeredLastTime: -100
    sliderValue: 0
  triggerSound:
    isExpanded: 1
    allPlayersShouldHear: 0
    useLayerFilter: 0
    useTagFilter: 0
    matchingLayers: 00000000
    matchingTags:
    - Default
    customSoundActive: 0
    isCustomEvent: 0
    customEventName: 
    mechanimEventActive: 0
    isMechanimStateCheckEvent: 0
    mechanimStateName: 
    mechEventPlayedForState: 0
    SoundEvents: []
    mouseDragStopMode: 0
    mouseDragFadeOutTime: 1
    retriggerLimitMode: 0
    limitPerXFrm: 0
    limitPerXSec: 0
    triggeredLastFrame: -100
    triggeredLastTime: -100
    sliderValue: 0
  triggerExitSound:
    isExpanded: 1
    allPlayersShouldHear: 0
    useLayerFilter: 0
    useTagFilter: 0
    matchingLayers: 00000000
    matchingTags:
    - Default
    customSoundActive: 0
    isCustomEvent: 0
    customEventName: 
    mechanimEventActive: 0
    isMechanimStateCheckEvent: 0
    mechanimStateName: 
    mechEventPlayedForState: 0
    SoundEvents: []
    mouseDragStopMode: 0
    mouseDragFadeOutTime: 1
    retriggerLimitMode: 0
    limitPerXFrm: 0
    limitPerXSec: 0
    triggeredLastFrame: -100
    triggeredLastTime: -100
    sliderValue: 0
  mouseEnterSound:
    isExpanded: 1
    allPlayersShouldHear: 0
    useLayerFilter: 0
    useTagFilter: 0
    matchingLayers: 00000000
    matchingTags:
    - Default
    customSoundActive: 0
    isCustomEvent: 0
    customEventName: 
    mechanimEventActive: 0
    isMechanimStateCheckEvent: 0
    mechanimStateName: 
    mechEventPlayedForState: 0
    SoundEvents: []
    mouseDragStopMode: 0
    mouseDragFadeOutTime: 1
    retriggerLimitMode: 0
    limitPerXFrm: 0
    limitPerXSec: 0
    triggeredLastFrame: -100
    triggeredLastTime: -100
    sliderValue: 0
  mouseExitSound:
    isExpanded: 1
    allPlayersShouldHear: 0
    useLayerFilter: 0
    useTagFilter: 0
    matchingLayers: 00000000
    matchingTags:
    - Default
    customSoundActive: 0
    isCustomEvent: 0
    customEventName: 
    mechanimEventActive: 0
    isMechanimStateCheckEvent: 0
    mechanimStateName: 
    mechEventPlayedForState: 0
    SoundEvents: []
    mouseDragStopMode: 0
    mouseDragFadeOutTime: 1
    retriggerLimitMode: 0
    limitPerXFrm: 0
    limitPerXSec: 0
    triggeredLastFrame: -100
    triggeredLastTime: -100
    sliderValue: 0
  mouseClickSound:
    isExpanded: 1
    allPlayersShouldHear: 0
    useLayerFilter: 0
    useTagFilter: 0
    matchingLayers: 00000000
    matchingTags:
    - Default
    customSoundActive: 0
    isCustomEvent: 0
    customEventName: 
    mechanimEventActive: 0
    isMechanimStateCheckEvent: 0
    mechanimStateName: 
    mechEventPlayedForState: 0
    SoundEvents: []
    mouseDragStopMode: 0
    mouseDragFadeOutTime: 1
    retriggerLimitMode: 0
    limitPerXFrm: 0
    limitPerXSec: 0
    triggeredLastFrame: -100
    triggeredLastTime: -100
    sliderValue: 0
  mouseUpSound:
    isExpanded: 1
    allPlayersShouldHear: 0
    useLayerFilter: 0
    useTagFilter: 0
    matchingLayers: 00000000
    matchingTags:
    - Default
    customSoundActive: 0
    isCustomEvent: 0
    customEventName: 
    mechanimEventActive: 0
    isMechanimStateCheckEvent: 0
    mechanimStateName: 
    mechEventPlayedForState: 0
    SoundEvents: []
    mouseDragStopMode: 0
    mouseDragFadeOutTime: 1
    retriggerLimitMode: 0
    limitPerXFrm: 0
    limitPerXSec: 0
    triggeredLastFrame: -100
    triggeredLastTime: -100
    sliderValue: 0
  mouseDragSound:
    isExpanded: 1
    allPlayersShouldHear: 0
    useLayerFilter: 0
    useTagFilter: 0
    matchingLayers: 00000000
    matchingTags:
    - Default
    customSoundActive: 0
    isCustomEvent: 0
    customEventName: 
    mechanimEventActive: 0
    isMechanimStateCheckEvent: 0
    mechanimStateName: 
    mechEventPlayedForState: 0
    SoundEvents: []
    mouseDragStopMode: 0
    mouseDragFadeOutTime: 1
    retriggerLimitMode: 0
    limitPerXFrm: 0
    limitPerXSec: 0
    triggeredLastFrame: -100
    triggeredLastTime: -100
    sliderValue: 0
  spawnedSound:
    isExpanded: 1
    allPlayersShouldHear: 0
    useLayerFilter: 0
    useTagFilter: 0
    matchingLayers: 00000000
    matchingTags:
    - Default
    customSoundActive: 0
    isCustomEvent: 0
    customEventName: 
    mechanimEventActive: 0
    isMechanimStateCheckEvent: 0
    mechanimStateName: 
    mechEventPlayedForState: 0
    SoundEvents: []
    mouseDragStopMode: 0
    mouseDragFadeOutTime: 1
    retriggerLimitMode: 0
    limitPerXFrm: 0
    limitPerXSec: 0
    triggeredLastFrame: -100
    triggeredLastTime: -100
    sliderValue: 0
  despawnedSound:
    isExpanded: 1
    allPlayersShouldHear: 0
    useLayerFilter: 0
    useTagFilter: 0
    matchingLayers: 00000000
    matchingTags:
    - Default
    customSoundActive: 0
    isCustomEvent: 0
    customEventName: 
    mechanimEventActive: 0
    isMechanimStateCheckEvent: 0
    mechanimStateName: 
    mechEventPlayedForState: 0
    SoundEvents: []
    mouseDragStopMode: 0
    mouseDragFadeOutTime: 1
    retriggerLimitMode: 0
    limitPerXFrm: 0
    limitPerXSec: 0
    triggeredLastFrame: -100
    triggeredLastTime: -100
    sliderValue: 0
  enableSound:
    isExpanded: 1
    allPlayersShouldHear: 0
    useLayerFilter: 0
    useTagFilter: 0
    matchingLayers: 00000000
    matchingTags:
    - Default
    customSoundActive: 0
    isCustomEvent: 0
    customEventName: 
    mechanimEventActive: 0
    isMechanimStateCheckEvent: 0
    mechanimStateName: 
    mechEventPlayedForState: 0
    SoundEvents: []
    mouseDragStopMode: 0
    mouseDragFadeOutTime: 1
    retriggerLimitMode: 0
    limitPerXFrm: 0
    limitPerXSec: 0
    triggeredLastFrame: -100
    triggeredLastTime: -100
    sliderValue: 0
  disableSound:
    isExpanded: 1
    allPlayersShouldHear: 0
    useLayerFilter: 0
    useTagFilter: 0
    matchingLayers: 00000000
    matchingTags:
    - Default
    customSoundActive: 0
    isCustomEvent: 0
    customEventName: 
    mechanimEventActive: 0
    isMechanimStateCheckEvent: 0
    mechanimStateName: 
    mechEventPlayedForState: 0
    SoundEvents:
    - actionName: OwlDies
      isExpanded: 1
      soundType: owl-die
      allPlaylistControllersForGroupCmd: 0
      allSoundTypesForGroupCmd: 0
      allSoundTypesForBusCmd: 0
      volume: 1
      useFixedPitch: 0
      pitch: 1
      delaySound: 0
      currentSoundFunctionType: 0
      currentPlaylistCommand: 0
      currentSoundGroupCommand: 0
      currentBusCommand: 0
      currentCustomEventCommand: 0
      currentGlobalCommand: 0
      currentMixerCommand: 0
      snapshotToTransitionTo: {fileID: 0}
      snapshotTransitionTime: 1
      snapshotsToBlend:
      - snapshot: {fileID: 0}
        weight: 1
      currentPersistentSettingsCommand: 0
      busName: 
      playlistName: 
      playlistControllerName: 
      startPlaylist: 1
      fadeVolume: 0
      fadeTime: 1
      targetVolMode: 0
      clipName: '[None]'
      variationType: 1
      variationName: 
      theCustomEventName: 
    mouseDragStopMode: 0
    mouseDragFadeOutTime: 1
    retriggerLimitMode: 0
    limitPerXFrm: 0
    limitPerXSec: 0
    triggeredLastFrame: -100
    triggeredLastTime: -100
    sliderValue: 0
  collision2dSound:
    isExpanded: 1
    allPlayersShouldHear: 0
    useLayerFilter: 0
    useTagFilter: 0
    matchingLayers: 00000000
    matchingTags:
    - Default
    customSoundActive: 0
    isCustomEvent: 0
    customEventName: 
    mechanimEventActive: 0
    isMechanimStateCheckEvent: 0
    mechanimStateName: 
    mechEventPlayedForState: 0
    SoundEvents: []
    mouseDragStopMode: 0
    mouseDragFadeOutTime: 1
    retriggerLimitMode: 0
    limitPerXFrm: 0
    limitPerXSec: 0
    triggeredLastFrame: -100
    triggeredLastTime: -100
    sliderValue: 0
  collisionExit2dSound:
    isExpanded: 1
    allPlayersShouldHear: 0
    useLayerFilter: 0
    useTagFilter: 0
    matchingLayers: 00000000
    matchingTags:
    - Default
    customSoundActive: 0
    isCustomEvent: 0
    customEventName: 
    mechanimEventActive: 0
    isMechanimStateCheckEvent: 0
    mechanimStateName: 
    mechEventPlayedForState: 0
    SoundEvents: []
    mouseDragStopMode: 0
    mouseDragFadeOutTime: 1
    retriggerLimitMode: 0
    limitPerXFrm: 0
    limitPerXSec: 0
    triggeredLastFrame: -100
    triggeredLastTime: -100
    sliderValue: 0
  triggerEnter2dSound:
    isExpanded: 1
    allPlayersShouldHear: 0
    useLayerFilter: 0
    useTagFilter: 0
    matchingLayers: 00000000
    matchingTags:
    - Default
    customSoundActive: 0
    isCustomEvent: 0
    customEventName: 
    mechanimEventActive: 0
    isMechanimStateCheckEvent: 0
    mechanimStateName: 
    mechEventPlayedForState: 0
    SoundEvents: []
    mouseDragStopMode: 0
    mouseDragFadeOutTime: 1
    retriggerLimitMode: 0
    limitPerXFrm: 0
    limitPerXSec: 0
    triggeredLastFrame: -100
    triggeredLastTime: -100
    sliderValue: 0
  triggerExit2dSound:
    isExpanded: 1
    allPlayersShouldHear: 0
    useLayerFilter: 0
    useTagFilter: 0
    matchingLayers: 00000000
    matchingTags:
    - Default
    customSoundActive: 0
    isCustomEvent: 0
    customEventName: 
    mechanimEventActive: 0
    isMechanimStateCheckEvent: 0
    mechanimStateName: 
    mechEventPlayedForState: 0
    SoundEvents: []
    mouseDragStopMode: 0
    mouseDragFadeOutTime: 1
    retriggerLimitMode: 0
    limitPerXFrm: 0
    limitPerXSec: 0
    triggeredLastFrame: -100
    triggeredLastTime: -100
    sliderValue: 0
  particleCollisionSound:
    isExpanded: 1
    allPlayersShouldHear: 0
    useLayerFilter: 0
    useTagFilter: 0
    matchingLayers: 00000000
    matchingTags:
    - Default
    customSoundActive: 0
    isCustomEvent: 0
    customEventName: 
    mechanimEventActive: 0
    isMechanimStateCheckEvent: 0
    mechanimStateName: 
    mechEventPlayedForState: 0
    SoundEvents: []
    mouseDragStopMode: 0
    mouseDragFadeOutTime: 1
    retriggerLimitMode: 0
    limitPerXFrm: 0
    limitPerXSec: 0
    triggeredLastFrame: -100
    triggeredLastTime: -100
    sliderValue: 0
  nguiOnClickSound:
    isExpanded: 1
    allPlayersShouldHear: 0
    useLayerFilter: 0
    useTagFilter: 0
    matchingLayers: 00000000
    matchingTags:
    - Default
    customSoundActive: 0
    isCustomEvent: 0
    customEventName: 
    mechanimEventActive: 0
    isMechanimStateCheckEvent: 0
    mechanimStateName: 
    mechEventPlayedForState: 0
    SoundEvents: []
    mouseDragStopMode: 0
    mouseDragFadeOutTime: 1
    retriggerLimitMode: 0
    limitPerXFrm: 0
    limitPerXSec: 0
    triggeredLastFrame: -100
    triggeredLastTime: -100
    sliderValue: 0
  nguiMouseDownSound:
    isExpanded: 1
    allPlayersShouldHear: 0
    useLayerFilter: 0
    useTagFilter: 0
    matchingLayers: 00000000
    matchingTags:
    - Default
    customSoundActive: 0
    isCustomEvent: 0
    customEventName: 
    mechanimEventActive: 0
    isMechanimStateCheckEvent: 0
    mechanimStateName: 
    mechEventPlayedForState: 0
    SoundEvents: []
    mouseDragStopMode: 0
    mouseDragFadeOutTime: 1
    retriggerLimitMode: 0
    limitPerXFrm: 0
    limitPerXSec: 0
    triggeredLastFrame: -100
    triggeredLastTime: -100
    sliderValue: 0
  nguiMouseUpSound:
    isExpanded: 1
    allPlayersShouldHear: 0
    useLayerFilter: 0
    useTagFilter: 0
    matchingLayers: 00000000
    matchingTags:
    - Default
    customSoundActive: 0
    isCustomEvent: 0
    customEventName: 
    mechanimEventActive: 0
    isMechanimStateCheckEvent: 0
    mechanimStateName: 
    mechEventPlayedForState: 0
    SoundEvents: []
    mouseDragStopMode: 0
    mouseDragFadeOutTime: 1
    retriggerLimitMode: 0
    limitPerXFrm: 0
    limitPerXSec: 0
    triggeredLastFrame: -100
    triggeredLastTime: -100
    sliderValue: 0
  nguiMouseEnterSound:
    isExpanded: 1
    allPlayersShouldHear: 0
    useLayerFilter: 0
    useTagFilter: 0
    matchingLayers: 00000000
    matchingTags:
    - Default
    customSoundActive: 0
    isCustomEvent: 0
    customEventName: 
    mechanimEventActive: 0
    isMechanimStateCheckEvent: 0
    mechanimStateName: 
    mechEventPlayedForState: 0
    SoundEvents: []
    mouseDragStopMode: 0
    mouseDragFadeOutTime: 1
    retriggerLimitMode: 0
    limitPerXFrm: 0
    limitPerXSec: 0
    triggeredLastFrame: -100
    triggeredLastTime: -100
    sliderValue: 0
  nguiMouseExitSound:
    isExpanded: 1
    allPlayersShouldHear: 0
    useLayerFilter: 0
    useTagFilter: 0
    matchingLayers: 00000000
    matchingTags:
    - Default
    customSoundActive: 0
    isCustomEvent: 0
    customEventName: 
    mechanimEventActive: 0
    isMechanimStateCheckEvent: 0
    mechanimStateName: 
    mechEventPlayedForState: 0
    SoundEvents: []
    mouseDragStopMode: 0
    mouseDragFadeOutTime: 1
    retriggerLimitMode: 0
    limitPerXFrm: 0
    limitPerXSec: 0
    triggeredLastFrame: -100
    triggeredLastTime: -100
    sliderValue: 0
  unitySliderChangedSound:
    isExpanded: 1
    allPlayersShouldHear: 0
    useLayerFilter: 0
    useTagFilter: 0
    matchingLayers: 00000000
    matchingTags:
    - Default
    customSoundActive: 0
    isCustomEvent: 0
    customEventName: 
    mechanimEventActive: 0
    isMechanimStateCheckEvent: 0
    mechanimStateName: 
    mechEventPlayedForState: 0
    SoundEvents: []
    mouseDragStopMode: 0
    mouseDragFadeOutTime: 1
    retriggerLimitMode: 0
    limitPerXFrm: 0
    limitPerXSec: 0
    triggeredLastFrame: -100
    triggeredLastTime: -100
    sliderValue: 0
  unityButtonClickedSound:
    isExpanded: 1
    allPlayersShouldHear: 0
    useLayerFilter: 0
    useTagFilter: 0
    matchingLayers: 00000000
    matchingTags:
    - Default
    customSoundActive: 0
    isCustomEvent: 0
    customEventName: 
    mechanimEventActive: 0
    isMechanimStateCheckEvent: 0
    mechanimStateName: 
    mechEventPlayedForState: 0
    SoundEvents: []
    mouseDragStopMode: 0
    mouseDragFadeOutTime: 1
    retriggerLimitMode: 0
    limitPerXFrm: 0
    limitPerXSec: 0
    triggeredLastFrame: -100
    triggeredLastTime: -100
    sliderValue: 0
  unityPointerDownSound:
    isExpanded: 1
    allPlayersShouldHear: 0
    useLayerFilter: 0
    useTagFilter: 0
    matchingLayers: 00000000
    matchingTags:
    - Default
    customSoundActive: 0
    isCustomEvent: 0
    customEventName: 
    mechanimEventActive: 0
    isMechanimStateCheckEvent: 0
    mechanimStateName: 
    mechEventPlayedForState: 0
    SoundEvents: []
    mouseDragStopMode: 0
    mouseDragFadeOutTime: 1
    retriggerLimitMode: 0
    limitPerXFrm: 0
    limitPerXSec: 0
    triggeredLastFrame: -100
    triggeredLastTime: -100
    sliderValue: 0
  unityDragSound:
    isExpanded: 1
    allPlayersShouldHear: 0
    useLayerFilter: 0
    useTagFilter: 0
    matchingLayers: 00000000
    matchingTags:
    - Default
    customSoundActive: 0
    isCustomEvent: 0
    customEventName: 
    mechanimEventActive: 0
    isMechanimStateCheckEvent: 0
    mechanimStateName: 
    mechEventPlayedForState: 0
    SoundEvents: []
    mouseDragStopMode: 0
    mouseDragFadeOutTime: 1
    retriggerLimitMode: 0
    limitPerXFrm: 0
    limitPerXSec: 0
    triggeredLastFrame: -100
    triggeredLastTime: -100
    sliderValue: 0
  unityPointerUpSound:
    isExpanded: 1
    allPlayersShouldHear: 0
    useLayerFilter: 0
    useTagFilter: 0
    matchingLayers: 00000000
    matchingTags:
    - Default
    customSoundActive: 0
    isCustomEvent: 0
    customEventName: 
    mechanimEventActive: 0
    isMechanimStateCheckEvent: 0
    mechanimStateName: 
    mechEventPlayedForState: 0
    SoundEvents: []
    mouseDragStopMode: 0
    mouseDragFadeOutTime: 1
    retriggerLimitMode: 0
    limitPerXFrm: 0
    limitPerXSec: 0
    triggeredLastFrame: -100
    triggeredLastTime: -100
    sliderValue: 0
  unityPointerEnterSound:
    isExpanded: 1
    allPlayersShouldHear: 0
    useLayerFilter: 0
    useTagFilter: 0
    matchingLayers: 00000000
    matchingTags:
    - Default
    customSoundActive: 0
    isCustomEvent: 0
    customEventName: 
    mechanimEventActive: 0
    isMechanimStateCheckEvent: 0
    mechanimStateName: 
    mechEventPlayedForState: 0
    SoundEvents: []
    mouseDragStopMode: 0
    mouseDragFadeOutTime: 1
    retriggerLimitMode: 0
    limitPerXFrm: 0
    limitPerXSec: 0
    triggeredLastFrame: -100
    triggeredLastTime: -100
    sliderValue: 0
  unityPointerExitSound:
    isExpanded: 1
    allPlayersShouldHear: 0
    useLayerFilter: 0
    useTagFilter: 0
    matchingLayers: 00000000
    matchingTags:
    - Default
    customSoundActive: 0
    isCustomEvent: 0
    customEventName: 
    mechanimEventActive: 0
    isMechanimStateCheckEvent: 0
    mechanimStateName: 
    mechEventPlayedForState: 0
    SoundEvents: []
    mouseDragStopMode: 0
    mouseDragFadeOutTime: 1
    retriggerLimitMode: 0
    limitPerXFrm: 0
    limitPerXSec: 0
    triggeredLastFrame: -100
    triggeredLastTime: -100
    sliderValue: 0
  unityDropSound:
    isExpanded: 1
    allPlayersShouldHear: 0
    useLayerFilter: 0
    useTagFilter: 0
    matchingLayers: 00000000
    matchingTags:
    - Default
    customSoundActive: 0
    isCustomEvent: 0
    customEventName: 
    mechanimEventActive: 0
    isMechanimStateCheckEvent: 0
    mechanimStateName: 
    mechEventPlayedForState: 0
    SoundEvents: []
    mouseDragStopMode: 0
    mouseDragFadeOutTime: 1
    retriggerLimitMode: 0
    limitPerXFrm: 0
    limitPerXSec: 0
    triggeredLastFrame: -100
    triggeredLastTime: -100
    sliderValue: 0
  unityScrollSound:
    isExpanded: 1
    allPlayersShouldHear: 0
    useLayerFilter: 0
    useTagFilter: 0
    matchingLayers: 00000000
    matchingTags:
    - Default
    customSoundActive: 0
    isCustomEvent: 0
    customEventName: 
    mechanimEventActive: 0
    isMechanimStateCheckEvent: 0
    mechanimStateName: 
    mechEventPlayedForState: 0
    SoundEvents: []
    mouseDragStopMode: 0
    mouseDragFadeOutTime: 1
    retriggerLimitMode: 0
    limitPerXFrm: 0
    limitPerXSec: 0
    triggeredLastFrame: -100
    triggeredLastTime: -100
    sliderValue: 0
  unityUpdateSelectedSound:
    isExpanded: 1
    allPlayersShouldHear: 0
    useLayerFilter: 0
    useTagFilter: 0
    matchingLayers: 00000000
    matchingTags:
    - Default
    customSoundActive: 0
    isCustomEvent: 0
    customEventName: 
    mechanimEventActive: 0
    isMechanimStateCheckEvent: 0
    mechanimStateName: 
    mechEventPlayedForState: 0
    SoundEvents: []
    mouseDragStopMode: 0
    mouseDragFadeOutTime: 1
    retriggerLimitMode: 0
    limitPerXFrm: 0
    limitPerXSec: 0
    triggeredLastFrame: -100
    triggeredLastTime: -100
    sliderValue: 0
  unitySelectSound:
    isExpanded: 1
    allPlayersShouldHear: 0
    useLayerFilter: 0
    useTagFilter: 0
    matchingLayers: 00000000
    matchingTags:
    - Default
    customSoundActive: 0
    isCustomEvent: 0
    customEventName: 
    mechanimEventActive: 0
    isMechanimStateCheckEvent: 0
    mechanimStateName: 
    mechEventPlayedForState: 0
    SoundEvents: []
    mouseDragStopMode: 0
    mouseDragFadeOutTime: 1
    retriggerLimitMode: 0
    limitPerXFrm: 0
    limitPerXSec: 0
    triggeredLastFrame: -100
    triggeredLastTime: -100
    sliderValue: 0
  unityDeselectSound:
    isExpanded: 1
    allPlayersShouldHear: 0
    useLayerFilter: 0
    useTagFilter: 0
    matchingLayers: 00000000
    matchingTags:
    - Default
    customSoundActive: 0
    isCustomEvent: 0
    customEventName: 
    mechanimEventActive: 0
    isMechanimStateCheckEvent: 0
    mechanimStateName: 
    mechEventPlayedForState: 0
    SoundEvents: []
    mouseDragStopMode: 0
    mouseDragFadeOutTime: 1
    retriggerLimitMode: 0
    limitPerXFrm: 0
    limitPerXSec: 0
    triggeredLastFrame: -100
    triggeredLastTime: -100
    sliderValue: 0
  unityMoveSound:
    isExpanded: 1
    allPlayersShouldHear: 0
    useLayerFilter: 0
    useTagFilter: 0
    matchingLayers: 00000000
    matchingTags:
    - Default
    customSoundActive: 0
    isCustomEvent: 0
    customEventName: 
    mechanimEventActive: 0
    isMechanimStateCheckEvent: 0
    mechanimStateName: 
    mechEventPlayedForState: 0
    SoundEvents: []
    mouseDragStopMode: 0
    mouseDragFadeOutTime: 1
    retriggerLimitMode: 0
    limitPerXFrm: 0
    limitPerXSec: 0
    triggeredLastFrame: -100
    triggeredLastTime: -100
    sliderValue: 0
  unityInitializePotentialDragSound:
    isExpanded: 1
    allPlayersShouldHear: 0
    useLayerFilter: 0
    useTagFilter: 0
    matchingLayers: 00000000
    matchingTags:
    - Default
    customSoundActive: 0
    isCustomEvent: 0
    customEventName: 
    mechanimEventActive: 0
    isMechanimStateCheckEvent: 0
    mechanimStateName: 
    mechEventPlayedForState: 0
    SoundEvents: []
    mouseDragStopMode: 0
    mouseDragFadeOutTime: 1
    retriggerLimitMode: 0
    limitPerXFrm: 0
    limitPerXSec: 0
    triggeredLastFrame: -100
    triggeredLastTime: -100
    sliderValue: 0
  unityBeginDragSound:
    isExpanded: 1
    allPlayersShouldHear: 0
    useLayerFilter: 0
    useTagFilter: 0
    matchingLayers: 00000000
    matchingTags:
    - Default
    customSoundActive: 0
    isCustomEvent: 0
    customEventName: 
    mechanimEventActive: 0
    isMechanimStateCheckEvent: 0
    mechanimStateName: 
    mechEventPlayedForState: 0
    SoundEvents: []
    mouseDragStopMode: 0
    mouseDragFadeOutTime: 1
    retriggerLimitMode: 0
    limitPerXFrm: 0
    limitPerXSec: 0
    triggeredLastFrame: -100
    triggeredLastTime: -100
    sliderValue: 0
  unityEndDragSound:
    isExpanded: 1
    allPlayersShouldHear: 0
    useLayerFilter: 0
    useTagFilter: 0
    matchingLayers: 00000000
    matchingTags:
    - Default
    customSoundActive: 0
    isCustomEvent: 0
    customEventName: 
    mechanimEventActive: 0
    isMechanimStateCheckEvent: 0
    mechanimStateName: 
    mechEventPlayedForState: 0
    SoundEvents: []
    mouseDragStopMode: 0
    mouseDragFadeOutTime: 1
    retriggerLimitMode: 0
    limitPerXFrm: 0
    limitPerXSec: 0
    triggeredLastFrame: -100
    triggeredLastTime: -100
    sliderValue: 0
  unitySubmitSound:
    isExpanded: 1
    allPlayersShouldHear: 0
    useLayerFilter: 0
    useTagFilter: 0
    matchingLayers: 00000000
    matchingTags:
    - Default
    customSoundActive: 0
    isCustomEvent: 0
    customEventName: 
    mechanimEventActive: 0
    isMechanimStateCheckEvent: 0
    mechanimStateName: 
    mechEventPlayedForState: 0
    SoundEvents: []
    mouseDragStopMode: 0
    mouseDragFadeOutTime: 1
    retriggerLimitMode: 0
    limitPerXFrm: 0
    limitPerXSec: 0
    triggeredLastFrame: -100
    triggeredLastTime: -100
    sliderValue: 0
  unityCancelSound:
    isExpanded: 1
    allPlayersShouldHear: 0
    useLayerFilter: 0
    useTagFilter: 0
    matchingLayers: 00000000
    matchingTags:
    - Default
    customSoundActive: 0
    isCustomEvent: 0
    customEventName: 
    mechanimEventActive: 0
    isMechanimStateCheckEvent: 0
    mechanimStateName: 
    mechEventPlayedForState: 0
    SoundEvents: []
    mouseDragStopMode: 0
    mouseDragFadeOutTime: 1
    retriggerLimitMode: 0
    limitPerXFrm: 0
    limitPerXSec: 0
    triggeredLastFrame: -100
    triggeredLastTime: -100
    sliderValue: 0
  unityToggleSound:
    isExpanded: 1
    allPlayersShouldHear: 0
    useLayerFilter: 0
    useTagFilter: 0
    matchingLayers: 00000000
    matchingTags:
    - Default
    customSoundActive: 0
    isCustomEvent: 0
    customEventName: 
    mechanimEventActive: 0
    isMechanimStateCheckEvent: 0
    mechanimStateName: 
    mechEventPlayedForState: 0
    SoundEvents: []
    mouseDragStopMode: 0
    mouseDragFadeOutTime: 1
    retriggerLimitMode: 0
    limitPerXFrm: 0
    limitPerXSec: 0
    triggeredLastFrame: -100
    triggeredLastTime: -100
    sliderValue: 0
  userDefinedSounds:
  - isExpanded: 1
    allPlayersShouldHear: 0
    useLayerFilter: 0
    useTagFilter: 0
    matchingLayers: 00000000
    matchingTags:
    - Default
    customSoundActive: 1
    isCustomEvent: 1
    customEventName: owlKills
    mechanimEventActive: 0
    isMechanimStateCheckEvent: 0
    mechanimStateName: 
    mechEventPlayedForState: 0
    SoundEvents:
    - actionName: owlKills
      isExpanded: 1
      soundType: owl-2
      allPlaylistControllersForGroupCmd: 0
      allSoundTypesForGroupCmd: 0
      allSoundTypesForBusCmd: 0
      volume: 1
      useFixedPitch: 0
      pitch: 1
      delaySound: 0
      currentSoundFunctionType: 0
      currentPlaylistCommand: 0
      currentSoundGroupCommand: 0
      currentBusCommand: 0
      currentCustomEventCommand: 0
      currentGlobalCommand: 0
      currentMixerCommand: 0
      snapshotToTransitionTo: {fileID: 0}
      snapshotTransitionTime: 1
      snapshotsToBlend:
      - snapshot: {fileID: 0}
        weight: 1
      currentPersistentSettingsCommand: 0
      busName: 
      playlistName: 
      playlistControllerName: 
      startPlaylist: 1
      fadeVolume: 0
      fadeTime: 1
      targetVolMode: 0
      clipName: '[None]'
      variationType: 1
      variationName: 
      theCustomEventName: 
    mouseDragStopMode: 0
    mouseDragFadeOutTime: 1
    retriggerLimitMode: 0
    limitPerXFrm: 0
    limitPerXSec: 0
    triggeredLastFrame: -100
    triggeredLastTime: -100
    sliderValue: 0
  - isExpanded: 1
    allPlayersShouldHear: 0
    useLayerFilter: 0
    useTagFilter: 0
    matchingLayers: 00000000
    matchingTags:
    - Default
    customSoundActive: 1
    isCustomEvent: 1
    customEventName: owlDies
    mechanimEventActive: 0
    isMechanimStateCheckEvent: 0
    mechanimStateName: 
    mechEventPlayedForState: 0
    SoundEvents:
    - actionName: owlDies
      isExpanded: 1
      soundType: owl-die
      allPlaylistControllersForGroupCmd: 0
      allSoundTypesForGroupCmd: 0
      allSoundTypesForBusCmd: 0
      volume: 1
      useFixedPitch: 0
      pitch: 1
      delaySound: 0
      currentSoundFunctionType: 0
      currentPlaylistCommand: 0
      currentSoundGroupCommand: 0
      currentBusCommand: 0
      currentCustomEventCommand: 0
      currentGlobalCommand: 0
      currentMixerCommand: 0
      snapshotToTransitionTo: {fileID: 0}
      snapshotTransitionTime: 1
      snapshotsToBlend:
      - snapshot: {fileID: 0}
        weight: 1
      currentPersistentSettingsCommand: 0
      busName: 
      playlistName: 
      playlistControllerName: 
      startPlaylist: 1
      fadeVolume: 0
      fadeTime: 1
      targetVolMode: 0
      clipName: '[None]'
      variationType: 1
      variationName: 
      theCustomEventName: 
    mouseDragStopMode: 0
    mouseDragFadeOutTime: 1
    retriggerLimitMode: 0
    limitPerXFrm: 0
    limitPerXSec: 0
    triggeredLastFrame: -100
    triggeredLastTime: -100
    sliderValue: 0
  mechanimStateChangedSounds: []
  useStartSound: 0
  useVisibleSound: 0
  useInvisibleSound: 0
  useCollisionSound: 0
  useCollisionExitSound: 0
  useTriggerEnterSound: 0
  useTriggerExitSound: 0
  useMouseEnterSound: 0
  useMouseExitSound: 0
  useMouseClickSound: 0
  useMouseUpSound: 0
  useMouseDragSound: 0
  useSpawnedSound: 0
  useDespawnedSound: 0
  useEnableSound: 0
  useDisableSound: 0
  useCollision2dSound: 0
  useCollisionExit2dSound: 0
  useTriggerEnter2dSound: 0
  useTriggerExit2dSound: 0
  useParticleCollisionSound: 0
  useNguiOnClickSound: 0
  useNguiMouseDownSound: 0
  useNguiMouseUpSound: 0
  useNguiMouseEnterSound: 0
  useNguiMouseExitSound: 0
  useUnitySliderChangedSound: 0
  useUnityButtonClickedSound: 0
  useUnityPointerDownSound: 0
  useUnityDragSound: 0
  useUnityPointerUpSound: 0
  useUnityPointerEnterSound: 0
  useUnityPointerExitSound: 0
  useUnityDropSound: 0
  useUnityScrollSound: 0
  useUnityUpdateSelectedSound: 0
  useUnitySelectSound: 0
  useUnityDeselectSound: 0
  useUnityMoveSound: 0
  useUnityInitializePotentialDragSound: 0
  useUnityBeginDragSound: 0
  useUnityEndDragSound: 0
  useUnitySubmitSound: 0
  useUnityCancelSound: 0
  useUnityToggleSound: 0
