Maze Fun,,,,,,,,,,,,,,,,,,
w,w,w,w,w,w,w,w,w,w,w,w,w,w,w,w,w,w,w
w,p,w,,,,w,w,w,,,,w,,,,,,w
w,,w,,w,,,,w,c,w,,w,,w,w,w,,w
w,,w,,w,,w,w,w,w,w,,w,,w,w,w,,w
w,,w,,w,,w,,,,,,w,,w,a,,,w
w,,w,,w,,w,,w,w,w,,w,,w,w,w,,w
w,,w,,w,,w,,w,a,w,,w,,,,w,,w
w,,,,w,,,,w,,w,,w,,w,,w,c,w
w,w,w,w,w,w,w,w,w,,w,,w,,w,,w,w,w
d,,w,,,,,,,,w,,w,,w,,,,w
w,,w,,w,,w,w,w,,w,,w,,w,,bp,,w
w,,w,,w,,w,a,,,w,,w,,w,,ous,,w
w,,w,,w,,,w,,,w,,w,,w,ous,k,ols,w
w,,w,,,w,,,w,,w,,,,w,,ods,,w
w,,w,,,,w,,,w,w,,w,w,w,,su,,w
w,,w,,w,,,w,,,w,,,,w,w,w,w,w
w,,,,w,,,c,w,,,,w,,,,,a,w
w,w,w,w,w,w,w,w,w,w,w,w,w,w,w,w,w,w,w