%YAML 1.1
%TAG !u! tag:unity3d.com,2011:
--- !u!29 &1
SceneSettings:
  m_ObjectHideFlags: 0
  m_PVSData: 
  m_PVSObjectsArray: []
  m_PVSPortalsArray: []
  m_OcclusionBakeSettings:
    smallestOccluder: 5
    smallestHole: 0.25
    backfaceThreshold: 100
--- !u!104 &2
RenderSettings:
  m_ObjectHideFlags: 0
  serializedVersion: 7
  m_Fog: 0
  m_FogColor: {r: 0.5, g: 0.5, b: 0.5, a: 1}
  m_FogMode: 3
  m_FogDensity: 0.01
  m_LinearFogStart: 0
  m_LinearFogEnd: 300
  m_AmbientSkyColor: {r: 0.212, g: 0.227, b: 0.259, a: 1}
  m_AmbientEquatorColor: {r: 0.114, g: 0.125, b: 0.133, a: 1}
  m_AmbientGroundColor: {r: 0.047, g: 0.043, b: 0.035, a: 1}
  m_AmbientIntensity: 1
  m_AmbientMode: 0
  m_SkyboxMaterial: {fileID: 10304, guid: 0000000000000000f000000000000000, type: 0}
  m_HaloStrength: 0.5
  m_FlareStrength: 1
  m_FlareFadeSpeed: 3
  m_HaloTexture: {fileID: 0}
  m_SpotCookie: {fileID: 10001, guid: 0000000000000000e000000000000000, type: 0}
  m_DefaultReflectionMode: 0
  m_DefaultReflectionResolution: 128
  m_ReflectionBounces: 1
  m_ReflectionIntensity: 1
  m_CustomReflection: {fileID: 0}
  m_Sun: {fileID: 0}
  m_IndirectSpecularColor: {r: 0.37356424, g: 0.3811201, b: 0.35887662, a: 1}
--- !u!157 &3
LightmapSettings:
  m_ObjectHideFlags: 0
  serializedVersion: 7
  m_GIWorkflowMode: 0
  m_GISettings:
    serializedVersion: 2
    m_BounceScale: 1
    m_IndirectOutputScale: 1
    m_AlbedoBoost: 1
    m_TemporalCoherenceThreshold: 1
    m_EnvironmentLightingMode: 0
    m_EnableBakedLightmaps: 1
    m_EnableRealtimeLightmaps: 1
  m_LightmapEditorSettings:
    serializedVersion: 4
    m_Resolution: 2
    m_BakeResolution: 40
    m_TextureWidth: 1024
    m_TextureHeight: 1024
    m_AO: 0
    m_AOMaxDistance: 1
    m_CompAOExponent: 0
    m_CompAOExponentDirect: 0
    m_Padding: 2
    m_LightmapParameters: {fileID: 0}
    m_LightmapsBakeMode: 1
    m_TextureCompression: 1
    m_DirectLightInLightProbes: 1
    m_FinalGather: 0
    m_FinalGatherFiltering: 1
    m_FinalGatherRayCount: 1024
    m_ReflectionCompression: 2
  m_LightingDataAsset: {fileID: 0}
  m_RuntimeCPUUsage: 25
--- !u!196 &4
NavMeshSettings:
  serializedVersion: 2
  m_ObjectHideFlags: 0
  m_BuildSettings:
    serializedVersion: 2
    agentRadius: 0.5
    agentHeight: 2
    agentSlope: 45
    agentClimb: 0.4
    ledgeDropHeight: 0
    maxJumpAcrossDistance: 0
    accuratePlacement: 0
    minRegionArea: 2
    cellSize: 0.16666667
    manualCellSize: 0
  m_NavMeshData: {fileID: 0}
--- !u!1001 &67689422
Prefab:
  m_ObjectHideFlags: 0
  serializedVersion: 2
  m_Modification:
    m_TransformParent: {fileID: 0}
    m_Modifications:
    - target: {fileID: 460428, guid: be9fffc8f142d42f3b4a565d3453815c, type: 2}
      propertyPath: m_LocalPosition.x
      value: 0
      objectReference: {fileID: 0}
    - target: {fileID: 460428, guid: be9fffc8f142d42f3b4a565d3453815c, type: 2}
      propertyPath: m_LocalPosition.y
      value: 0
      objectReference: {fileID: 0}
    - target: {fileID: 460428, guid: be9fffc8f142d42f3b4a565d3453815c, type: 2}
      propertyPath: m_LocalPosition.z
      value: 0
      objectReference: {fileID: 0}
    - target: {fileID: 460428, guid: be9fffc8f142d42f3b4a565d3453815c, type: 2}
      propertyPath: m_LocalRotation.x
      value: 0
      objectReference: {fileID: 0}
    - target: {fileID: 460428, guid: be9fffc8f142d42f3b4a565d3453815c, type: 2}
      propertyPath: m_LocalRotation.y
      value: 0
      objectReference: {fileID: 0}
    - target: {fileID: 460428, guid: be9fffc8f142d42f3b4a565d3453815c, type: 2}
      propertyPath: m_LocalRotation.z
      value: 0
      objectReference: {fileID: 0}
    - target: {fileID: 460428, guid: be9fffc8f142d42f3b4a565d3453815c, type: 2}
      propertyPath: m_LocalRotation.w
      value: 1
      objectReference: {fileID: 0}
    - target: {fileID: 460428, guid: be9fffc8f142d42f3b4a565d3453815c, type: 2}
      propertyPath: m_RootOrder
      value: 3
      objectReference: {fileID: 0}
    - target: {fileID: 2372278, guid: be9fffc8f142d42f3b4a565d3453815c, type: 2}
      propertyPath: m_Materials.Array.data[0]
      value: 
      objectReference: {fileID: 2100000, guid: d0103dad4aea2401283537d408449735, type: 2}
    - target: {fileID: 468282, guid: be9fffc8f142d42f3b4a565d3453815c, type: 2}
      propertyPath: m_LocalPosition.x
      value: 0
      objectReference: {fileID: 0}
    - target: {fileID: 468282, guid: be9fffc8f142d42f3b4a565d3453815c, type: 2}
      propertyPath: m_LocalPosition.y
      value: 0
      objectReference: {fileID: 0}
    - target: {fileID: 468282, guid: be9fffc8f142d42f3b4a565d3453815c, type: 2}
      propertyPath: m_LocalPosition.z
      value: 0
      objectReference: {fileID: 0}
    m_RemovedComponents: []
  m_ParentPrefab: {fileID: 100100000, guid: be9fffc8f142d42f3b4a565d3453815c, type: 2}
  m_IsPrefabParent: 0
--- !u!1 &568184013 stripped
GameObject:
  m_PrefabParentObject: {fileID: 158126, guid: 8ef853e2c11744a16a1bf7b7cdba365e, type: 2}
  m_PrefabInternal: {fileID: 1902880498}
--- !u!82 &568184020
AudioSource:
  m_ObjectHideFlags: 0
  m_PrefabParentObject: {fileID: 0}
  m_PrefabInternal: {fileID: 0}
  m_GameObject: {fileID: 568184013}
  m_Enabled: 1
  serializedVersion: 4
  OutputAudioMixerGroup: {fileID: 0}
  m_audioClip: {fileID: 0}
  m_PlayOnAwake: 0
  m_Volume: 1
  m_Pitch: 1
  Loop: 0
  Mute: 0
  Spatialize: 0
  Priority: 128
  DopplerLevel: 1
  MinDistance: 10
  MaxDistance: 500
  Pan2D: 0
  rolloffMode: 0
  BypassEffects: 0
  BypassListenerEffects: 0
  BypassReverbZones: 0
  rolloffCustomCurve:
    serializedVersion: 2
    m_Curve:
    - time: 0
      value: 1
      inSlope: 0
      outSlope: 0
      tangentMode: 0
    - time: 1
      value: 0
      inSlope: 0
      outSlope: 0
      tangentMode: 0
    m_PreInfinity: 2
    m_PostInfinity: 2
    m_RotationOrder: 4
  panLevelCustomCurve:
    serializedVersion: 2
    m_Curve:
    - time: 0
      value: 1
      inSlope: 0
      outSlope: 0
      tangentMode: 0
    m_PreInfinity: 2
    m_PostInfinity: 2
    m_RotationOrder: 0
  spreadCustomCurve:
    serializedVersion: 2
    m_Curve:
    - time: 0
      value: 0
      inSlope: 0
      outSlope: 0
      tangentMode: 0
    m_PreInfinity: 2
    m_PostInfinity: 2
    m_RotationOrder: 4
  reverbZoneMixCustomCurve:
    serializedVersion: 2
    m_Curve:
    - time: 0
      value: 1
      inSlope: 0
      outSlope: 0
      tangentMode: 0
    m_PreInfinity: 2
    m_PostInfinity: 2
    m_RotationOrder: 0
--- !u!1001 &1152173687
Prefab:
  m_ObjectHideFlags: 0
  serializedVersion: 2
  m_Modification:
    m_TransformParent: {fileID: 0}
    m_Modifications:
    - target: {fileID: 4000011686372196, guid: 14fc6dc4c941a4d12b918d1c640cf014, type: 2}
      propertyPath: m_LocalPosition.x
      value: 0
      objectReference: {fileID: 0}
    - target: {fileID: 4000011686372196, guid: 14fc6dc4c941a4d12b918d1c640cf014, type: 2}
      propertyPath: m_LocalPosition.y
      value: 0
      objectReference: {fileID: 0}
    - target: {fileID: 4000011686372196, guid: 14fc6dc4c941a4d12b918d1c640cf014, type: 2}
      propertyPath: m_LocalPosition.z
      value: 0
      objectReference: {fileID: 0}
    - target: {fileID: 4000011686372196, guid: 14fc6dc4c941a4d12b918d1c640cf014, type: 2}
      propertyPath: m_LocalRotation.x
      value: 0
      objectReference: {fileID: 0}
    - target: {fileID: 4000011686372196, guid: 14fc6dc4c941a4d12b918d1c640cf014, type: 2}
      propertyPath: m_LocalRotation.y
      value: 0
      objectReference: {fileID: 0}
    - target: {fileID: 4000011686372196, guid: 14fc6dc4c941a4d12b918d1c640cf014, type: 2}
      propertyPath: m_LocalRotation.z
      value: 0
      objectReference: {fileID: 0}
    - target: {fileID: 4000011686372196, guid: 14fc6dc4c941a4d12b918d1c640cf014, type: 2}
      propertyPath: m_LocalRotation.w
      value: 1
      objectReference: {fileID: 0}
    - target: {fileID: 4000011686372196, guid: 14fc6dc4c941a4d12b918d1c640cf014, type: 2}
      propertyPath: m_RootOrder
      value: 5
      objectReference: {fileID: 0}
    m_RemovedComponents: []
  m_ParentPrefab: {fileID: 100100000, guid: 14fc6dc4c941a4d12b918d1c640cf014, type: 2}
  m_IsPrefabParent: 0
--- !u!1001 &1325083592
Prefab:
  m_ObjectHideFlags: 0
  serializedVersion: 2
  m_Modification:
    m_TransformParent: {fileID: 0}
    m_Modifications:
    - target: {fileID: 4000011608127688, guid: 99a41e1e5c1f34a03b73efc48445d1d3, type: 2}
      propertyPath: m_LocalPosition.x
      value: 0
      objectReference: {fileID: 0}
    - target: {fileID: 4000011608127688, guid: 99a41e1e5c1f34a03b73efc48445d1d3, type: 2}
      propertyPath: m_LocalPosition.y
      value: 0
      objectReference: {fileID: 0}
    - target: {fileID: 4000011608127688, guid: 99a41e1e5c1f34a03b73efc48445d1d3, type: 2}
      propertyPath: m_LocalPosition.z
      value: 2.39
      objectReference: {fileID: 0}
    - target: {fileID: 4000011608127688, guid: 99a41e1e5c1f34a03b73efc48445d1d3, type: 2}
      propertyPath: m_LocalRotation.x
      value: 0
      objectReference: {fileID: 0}
    - target: {fileID: 4000011608127688, guid: 99a41e1e5c1f34a03b73efc48445d1d3, type: 2}
      propertyPath: m_LocalRotation.y
      value: 0
      objectReference: {fileID: 0}
    - target: {fileID: 4000011608127688, guid: 99a41e1e5c1f34a03b73efc48445d1d3, type: 2}
      propertyPath: m_LocalRotation.z
      value: 0
      objectReference: {fileID: 0}
    - target: {fileID: 4000011608127688, guid: 99a41e1e5c1f34a03b73efc48445d1d3, type: 2}
      propertyPath: m_LocalRotation.w
      value: 1
      objectReference: {fileID: 0}
    - target: {fileID: 4000011608127688, guid: 99a41e1e5c1f34a03b73efc48445d1d3, type: 2}
      propertyPath: m_RootOrder
      value: 4
      objectReference: {fileID: 0}
    m_RemovedComponents: []
  m_ParentPrefab: {fileID: 100100000, guid: 99a41e1e5c1f34a03b73efc48445d1d3, type: 2}
  m_IsPrefabParent: 0
--- !u!1001 &1461698932
Prefab:
  m_ObjectHideFlags: 0
  serializedVersion: 2
  m_Modification:
    m_TransformParent: {fileID: 0}
    m_Modifications:
    - target: {fileID: 492094, guid: 95f7610ff04aa40a89095f596c402a86, type: 2}
      propertyPath: m_LocalPosition.x
      value: 0
      objectReference: {fileID: 0}
    - target: {fileID: 492094, guid: 95f7610ff04aa40a89095f596c402a86, type: 2}
      propertyPath: m_LocalPosition.y
      value: 0
      objectReference: {fileID: 0}
    - target: {fileID: 492094, guid: 95f7610ff04aa40a89095f596c402a86, type: 2}
      propertyPath: m_LocalPosition.z
      value: 0
      objectReference: {fileID: 0}
    - target: {fileID: 492094, guid: 95f7610ff04aa40a89095f596c402a86, type: 2}
      propertyPath: m_LocalRotation.x
      value: 0
      objectReference: {fileID: 0}
    - target: {fileID: 492094, guid: 95f7610ff04aa40a89095f596c402a86, type: 2}
      propertyPath: m_LocalRotation.y
      value: 0
      objectReference: {fileID: 0}
    - target: {fileID: 492094, guid: 95f7610ff04aa40a89095f596c402a86, type: 2}
      propertyPath: m_LocalRotation.z
      value: 0
      objectReference: {fileID: 0}
    - target: {fileID: 492094, guid: 95f7610ff04aa40a89095f596c402a86, type: 2}
      propertyPath: m_LocalRotation.w
      value: 1
      objectReference: {fileID: 0}
    - target: {fileID: 492094, guid: 95f7610ff04aa40a89095f596c402a86, type: 2}
      propertyPath: m_RootOrder
      value: 1
      objectReference: {fileID: 0}
    m_RemovedComponents: []
  m_ParentPrefab: {fileID: 100100000, guid: 95f7610ff04aa40a89095f596c402a86, type: 2}
  m_IsPrefabParent: 0
--- !u!1001 &1791281178
Prefab:
  m_ObjectHideFlags: 0
  serializedVersion: 2
  m_Modification:
    m_TransformParent: {fileID: 0}
    m_Modifications:
    - target: {fileID: 22436812, guid: a4723f16b1e8c4c95aad05e6fafd8ee0, type: 2}
      propertyPath: m_LocalPosition.x
      value: 0
      objectReference: {fileID: 0}
    - target: {fileID: 22436812, guid: a4723f16b1e8c4c95aad05e6fafd8ee0, type: 2}
      propertyPath: m_LocalPosition.y
      value: 0
      objectReference: {fileID: 0}
    - target: {fileID: 22436812, guid: a4723f16b1e8c4c95aad05e6fafd8ee0, type: 2}
      propertyPath: m_LocalPosition.z
      value: 0
      objectReference: {fileID: 0}
    - target: {fileID: 22436812, guid: a4723f16b1e8c4c95aad05e6fafd8ee0, type: 2}
      propertyPath: m_LocalRotation.x
      value: 0
      objectReference: {fileID: 0}
    - target: {fileID: 22436812, guid: a4723f16b1e8c4c95aad05e6fafd8ee0, type: 2}
      propertyPath: m_LocalRotation.y
      value: 0
      objectReference: {fileID: 0}
    - target: {fileID: 22436812, guid: a4723f16b1e8c4c95aad05e6fafd8ee0, type: 2}
      propertyPath: m_LocalRotation.z
      value: 0
      objectReference: {fileID: 0}
    - target: {fileID: 22436812, guid: a4723f16b1e8c4c95aad05e6fafd8ee0, type: 2}
      propertyPath: m_LocalRotation.w
      value: 1
      objectReference: {fileID: 0}
    - target: {fileID: 22436812, guid: a4723f16b1e8c4c95aad05e6fafd8ee0, type: 2}
      propertyPath: m_RootOrder
      value: 2
      objectReference: {fileID: 0}
    - target: {fileID: 22436812, guid: a4723f16b1e8c4c95aad05e6fafd8ee0, type: 2}
      propertyPath: m_AnchoredPosition.x
      value: 0
      objectReference: {fileID: 0}
    - target: {fileID: 22436812, guid: a4723f16b1e8c4c95aad05e6fafd8ee0, type: 2}
      propertyPath: m_AnchoredPosition.y
      value: 0
      objectReference: {fileID: 0}
    - target: {fileID: 22436812, guid: a4723f16b1e8c4c95aad05e6fafd8ee0, type: 2}
      propertyPath: m_SizeDelta.x
      value: 0
      objectReference: {fileID: 0}
    - target: {fileID: 22436812, guid: a4723f16b1e8c4c95aad05e6fafd8ee0, type: 2}
      propertyPath: m_SizeDelta.y
      value: 0
      objectReference: {fileID: 0}
    - target: {fileID: 22436812, guid: a4723f16b1e8c4c95aad05e6fafd8ee0, type: 2}
      propertyPath: m_AnchorMin.x
      value: 0
      objectReference: {fileID: 0}
    - target: {fileID: 22436812, guid: a4723f16b1e8c4c95aad05e6fafd8ee0, type: 2}
      propertyPath: m_AnchorMin.y
      value: 0
      objectReference: {fileID: 0}
    - target: {fileID: 22436812, guid: a4723f16b1e8c4c95aad05e6fafd8ee0, type: 2}
      propertyPath: m_AnchorMax.x
      value: 0
      objectReference: {fileID: 0}
    - target: {fileID: 22436812, guid: a4723f16b1e8c4c95aad05e6fafd8ee0, type: 2}
      propertyPath: m_AnchorMax.y
      value: 0
      objectReference: {fileID: 0}
    - target: {fileID: 22436812, guid: a4723f16b1e8c4c95aad05e6fafd8ee0, type: 2}
      propertyPath: m_Pivot.x
      value: 0
      objectReference: {fileID: 0}
    - target: {fileID: 22436812, guid: a4723f16b1e8c4c95aad05e6fafd8ee0, type: 2}
      propertyPath: m_Pivot.y
      value: 0
      objectReference: {fileID: 0}
    - target: {fileID: 224000011678840160, guid: a4723f16b1e8c4c95aad05e6fafd8ee0,
        type: 2}
      propertyPath: m_AnchorMin.y
      value: 1
      objectReference: {fileID: 0}
    - target: {fileID: 224000011678840160, guid: a4723f16b1e8c4c95aad05e6fafd8ee0,
        type: 2}
      propertyPath: m_AnchorMax.y
      value: 1
      objectReference: {fileID: 0}
    - target: {fileID: 224000011678840160, guid: a4723f16b1e8c4c95aad05e6fafd8ee0,
        type: 2}
      propertyPath: m_AnchoredPosition.x
      value: 300
      objectReference: {fileID: 0}
    - target: {fileID: 224000011678840160, guid: a4723f16b1e8c4c95aad05e6fafd8ee0,
        type: 2}
      propertyPath: m_AnchoredPosition.y
      value: -100
      objectReference: {fileID: 0}
    - target: {fileID: 224000011678840160, guid: a4723f16b1e8c4c95aad05e6fafd8ee0,
        type: 2}
      propertyPath: m_SizeDelta.x
      value: 600
      objectReference: {fileID: 0}
    - target: {fileID: 224000011678840160, guid: a4723f16b1e8c4c95aad05e6fafd8ee0,
        type: 2}
      propertyPath: m_SizeDelta.y
      value: 200
      objectReference: {fileID: 0}
    - target: {fileID: 224000012192599574, guid: a4723f16b1e8c4c95aad05e6fafd8ee0,
        type: 2}
      propertyPath: m_AnchorMin.y
      value: 1
      objectReference: {fileID: 0}
    - target: {fileID: 224000012192599574, guid: a4723f16b1e8c4c95aad05e6fafd8ee0,
        type: 2}
      propertyPath: m_AnchorMax.y
      value: 1
      objectReference: {fileID: 0}
    - target: {fileID: 224000012192599574, guid: a4723f16b1e8c4c95aad05e6fafd8ee0,
        type: 2}
      propertyPath: m_AnchoredPosition.x
      value: 300
      objectReference: {fileID: 0}
    - target: {fileID: 224000012192599574, guid: a4723f16b1e8c4c95aad05e6fafd8ee0,
        type: 2}
      propertyPath: m_AnchoredPosition.y
      value: -300
      objectReference: {fileID: 0}
    - target: {fileID: 224000012192599574, guid: a4723f16b1e8c4c95aad05e6fafd8ee0,
        type: 2}
      propertyPath: m_SizeDelta.x
      value: 600
      objectReference: {fileID: 0}
    - target: {fileID: 224000012192599574, guid: a4723f16b1e8c4c95aad05e6fafd8ee0,
        type: 2}
      propertyPath: m_SizeDelta.y
      value: 200
      objectReference: {fileID: 0}
    - target: {fileID: 1000010247278550, guid: a4723f16b1e8c4c95aad05e6fafd8ee0, type: 2}
      propertyPath: m_IsActive
      value: 0
      objectReference: {fileID: 0}
    m_RemovedComponents: []
  m_ParentPrefab: {fileID: 100100000, guid: a4723f16b1e8c4c95aad05e6fafd8ee0, type: 2}
  m_IsPrefabParent: 0
--- !u!1001 &1902880498
Prefab:
  m_ObjectHideFlags: 0
  serializedVersion: 2
  m_Modification:
    m_TransformParent: {fileID: 0}
    m_Modifications:
    - target: {fileID: 462542, guid: 8ef853e2c11744a16a1bf7b7cdba365e, type: 2}
      propertyPath: m_LocalPosition.x
      value: 0
      objectReference: {fileID: 0}
    - target: {fileID: 462542, guid: 8ef853e2c11744a16a1bf7b7cdba365e, type: 2}
      propertyPath: m_LocalPosition.y
      value: 80
      objectReference: {fileID: 0}
    - target: {fileID: 462542, guid: 8ef853e2c11744a16a1bf7b7cdba365e, type: 2}
      propertyPath: m_LocalPosition.z
      value: -144
      objectReference: {fileID: 0}
    - target: {fileID: 462542, guid: 8ef853e2c11744a16a1bf7b7cdba365e, type: 2}
      propertyPath: m_LocalRotation.x
      value: 0.309017
      objectReference: {fileID: 0}
    - target: {fileID: 462542, guid: 8ef853e2c11744a16a1bf7b7cdba365e, type: 2}
      propertyPath: m_LocalRotation.y
      value: 0
      objectReference: {fileID: 0}
    - target: {fileID: 462542, guid: 8ef853e2c11744a16a1bf7b7cdba365e, type: 2}
      propertyPath: m_LocalRotation.z
      value: 0
      objectReference: {fileID: 0}
    - target: {fileID: 462542, guid: 8ef853e2c11744a16a1bf7b7cdba365e, type: 2}
      propertyPath: m_LocalRotation.w
      value: 0.95105654
      objectReference: {fileID: 0}
    - target: {fileID: 462542, guid: 8ef853e2c11744a16a1bf7b7cdba365e, type: 2}
      propertyPath: m_RootOrder
      value: 0
      objectReference: {fileID: 0}
    m_RemovedComponents: []
  m_ParentPrefab: {fileID: 100100000, guid: 8ef853e2c11744a16a1bf7b7cdba365e, type: 2}
  m_IsPrefabParent: 0
